<?xml version="1.0" encoding="UTF-8"?>
<svg width="25px" height="23px" viewBox="0 0 25 23" version="1.1" xmlns="http://www.w3.org/2000/svg" xmlns:xlink="http://www.w3.org/1999/xlink">
    <!-- Generator: Sketch 46.1 (44463) - http://www.bohemiancoding.com/sketch -->
    <title>Page 1</title>
    <desc>Created with Sketch.</desc>
    <defs></defs>
    <g id="Symbols" stroke="none" stroke-width="1" fill="none" fill-rule="evenodd">
        <g id="Account" transform="translate(-37.000000, -8.000000)" fill-rule="nonzero" fill="#949494">
            <path d="M49.9491537,22.7500308 C51.2412908,22.5378248 52.2883734,21.4907422 52.5005846,20.1985734 C52.8523231,18.0527095 51.028112,16.2282093 48.8820289,16.5798421 C47.5897092,16.7920781 46.5426266,17.8391606 46.3304206,19.1312977 C45.978707,21.2778741 47.8025773,23.1017444 49.9491537,22.7500308 Z M50.1110289,23.7368421 C47.2894227,24.1991584 44.881293,21.7910287 45.3436094,18.9694225 C45.6253734,17.2537422 47.0042908,15.8748248 48.7201537,15.5930308 C51.541317,15.1307871 53.9497705,17.5396224 53.4873906,20.3604803 C53.2056266,22.0761606 51.8267092,23.4550781 50.1110289,23.7368421 Z M50.3680141,10.6167622 L50.709,10.9824514 L50.7828264,10.4879318 C50.7025094,10.4759413 50.6220172,10.4650038 50.5413621,10.4551243 L50.3680141,10.6167622 Z M60.0922892,16.6933307 C60.6903655,16.8766824 61.1306942,17.387953 61.2161447,18.0049407 C61.2926036,18.5495797 61.331,19.1038458 61.331,19.6654514 C61.331,20.1648198 61.2993976,20.6626224 61.2369076,21.1582924 C61.1558047,21.788288 60.7149359,22.3129382 60.1072455,22.4995856 L58.0212341,23.1376279 C57.7072751,23.91485 57.2881061,24.6459527 56.7770117,25.3118131 L57.2720395,27.4623475 C57.4142997,28.0749374 57.1863163,28.7156566 56.6886091,29.1001825 C55.8648845,29.7363159 54.9584135,30.2634927 53.9914121,30.667362 C53.4071971,30.9094561 52.7349095,30.7876294 52.2730748,30.3561973 L50.6663733,28.8585316 C50.2518244,28.914885 49.8347376,28.9434514 49.415,28.9434514 C48.9845277,28.9434514 48.556251,28.9131807 48.1306839,28.8534695 L46.5307515,30.3453591 C46.0668249,30.7773907 45.391813,30.8985258 44.8075688,30.6535202 C43.8413529,30.2481656 42.9323553,29.7154862 42.1044697,29.0716914 C41.6098015,28.6858211 41.3839671,28.0477882 41.5257531,27.4372444 L42.024337,25.2721979 C41.5294553,24.6204782 41.1222909,23.9077617 40.8152715,23.1517051 L38.7249197,22.5116361 C38.1176732,22.3261288 37.6756473,21.8005094 37.5959748,21.1703722 C37.5323539,20.668827 37.5,20.1670811 37.5,19.6654514 C37.5,19.1005221 37.5391592,18.5421121 37.6167275,17.9928574 C37.7023058,17.374953 38.1426345,16.8636824 38.7406957,16.6803353 L40.8807248,16.0254828 C41.185679,15.3115407 41.5780148,14.6402032 42.0480154,14.026437 L41.5519016,11.8733016 C41.4098019,11.259953 41.6376178,10.6192972 42.1352484,10.2348304 C42.986336,9.57707629 43.9225467,9.03699515 44.9201321,8.63049472 C45.5021356,8.39306046 46.169818,8.51552994 46.6299345,8.94371429 L48.2549428,10.4585219 C48.6373938,10.4105937 49.0245173,10.3864514 49.415,10.3864514 C49.7931277,10.3864514 50.1689817,10.4095111 50.5413621,10.4551243 L52.1737997,8.93296226 C52.6318881,8.50531645 53.2980066,8.38202144 53.8795272,8.61695001 C54.8744846,9.01949795 55.8085834,9.55446988 56.6570231,10.2055006 C57.158407,10.5895085 57.3884053,11.2326067 57.2462336,11.8477163 L56.7533596,13.9868074 C57.2395795,14.6148543 57.6439481,15.3045918 57.9559515,16.0396818 L60.0922892,16.6933307 Z M57.2061547,16.8560297 L57.1177902,16.6316994 C56.8024187,15.8310688 56.3659967,15.0873677 55.8249966,14.4260401 L55.6696953,14.2361971 L55.7247664,13.9971866 L56.2718432,11.6228539 C56.3259059,11.3889499 56.2385014,11.1445583 56.0486193,10.9991281 C55.2711745,10.4025739 54.4156598,9.91260826 53.5047111,9.54404919 C53.2837497,9.45478297 53.0299201,9.50176547 52.8559859,9.66414063 L50.8736423,11.5125718 L50.6351736,11.4769711 C50.232751,11.4168938 49.8254375,11.3864514 49.415,11.3864514 C48.992263,11.3864514 48.5744088,11.4180856 48.1633423,11.4807424 L47.9240921,11.5172101 L47.7470655,11.3521886 L45.9483761,9.67547784 C45.7735915,9.51282342 45.5191184,9.46614675 45.297679,9.55648515 C44.3839424,9.92881859 43.5264601,10.4234829 42.7466909,11.0261193 C42.5586225,11.17142 42.4721293,11.414653 42.5262334,11.6481857 L43.1309162,14.2725088 L42.9777678,14.4618709 C42.4525285,15.1113093 42.0274051,15.8381562 41.7177757,16.6187976 L41.6291534,16.8422334 L41.3993043,16.9125676 L39.0335525,17.6364916 C38.8056923,17.7063465 38.6391762,17.8996902 38.6070875,18.1313684 C38.5358824,18.635577 38.5,19.1472607 38.5,19.6654514 C38.5,20.1245637 38.529645,20.5843003 38.5880507,21.0447324 C38.6184003,21.2847702 38.786689,21.4848847 39.0173917,21.555362 L41.574815,22.338449 L41.6612084,22.5690066 C41.9680055,23.387754 42.4056847,24.1538711 42.9552225,24.8398392 L43.106571,25.0287621 L43.0522469,25.2646585 L42.5000395,27.6625554 C42.446136,27.8946707 42.5318391,28.1368013 42.7189356,28.2827483 C43.4769867,28.8722366 44.3097026,29.3602144 45.1943633,29.7313542 C45.4155634,29.8241156 45.6726784,29.7779747 45.8490095,29.6137664 L47.8063467,27.7886074 L48.0495383,27.8293111 C48.5018793,27.9050207 48.9571541,27.9434514 49.415,27.9434514 C49.8632765,27.9434514 50.3082936,27.9069167 50.7507107,27.8349399 L50.9926338,27.7955815 L51.1719252,27.9627056 L52.9553223,29.6250762 C53.130981,29.7891712 53.3866645,29.8355041 53.6073045,29.7440748 C54.4922855,29.3744594 55.3228397,28.8914336 56.0773091,28.3087836 C56.2653054,28.1635386 56.3518086,27.920432 56.2977425,27.6876126 L55.694069,25.0650966 L55.8474888,24.8757149 C56.4128112,24.1778803 56.8618589,23.3947849 57.1744723,22.555861 L57.2606762,22.3245259 L57.4967545,22.2523173 L59.814197,21.5434882 C60.0456723,21.4723922 60.2140085,21.2720659 60.2449266,21.0319123 C60.3020492,20.5788039 60.331,20.122769 60.331,19.6654514 C60.331,19.1501659 60.2958215,18.6423517 60.2257275,18.1430455 C60.1938291,17.9127281 60.0273625,17.7194101 59.79956,17.6495261 L57.2061547,16.8560297 Z" id="Page-1"></path>
        </g>
    </g>
</svg>