<?xml version="1.0" encoding="UTF-8"?>
<svg width="22px" height="24px" viewBox="0 0 22 24" version="1.1" xmlns="http://www.w3.org/2000/svg" xmlns:xlink="http://www.w3.org/1999/xlink">
    <!-- Generator: Sketch 46.1 (44463) - http://www.bohemiancoding.com/sketch -->
    <title>Page 1</title>
    <desc>Created with Sketch.</desc>
    <defs></defs>
    <g id="Symbols" stroke="none" stroke-width="1" fill="none" fill-rule="evenodd">
        <g id="tab/home-grey" transform="translate(-39.000000, -8.000000)">
            <g id="Page-1" transform="translate(39.000000, 8.000000)">
                <path d="M9.6687,1.0074 L1.1687,8.5884 C0.7437,8.9684 0.4997,9.5114 0.4997,10.0814 L0.4997,20.5404 C0.4997,21.6454 1.3957,22.5404 2.4997,22.5404 L19.4997,22.5404 C20.6047,22.5404 21.4997,21.6454 21.4997,20.5404 L21.4997,10.0814 C21.4997,9.5114 21.2567,8.9684 20.8317,8.5884 L12.3317,1.0074 C11.5727,0.3304 10.4277,0.3304 9.6687,1.0074" id="Fill-1" fill="#FFFFFF"></path>
                <path d="M9.33589456,0.634250515 C10.2845201,-0.211888494 11.7158799,-0.211888494 12.6645054,0.634250515 L21.1649692,8.21566468 C21.6960741,8.69053494 21.9997,9.36911044 21.9997,10.0814 L21.9997,20.5404 C21.9997,21.9215424 20.8808424,23.0404 19.4997,23.0404 L2.4997,23.0404 C1.11925085,23.0404 -0.0003,21.9212357 -0.0003,20.5404 L-0.0003,10.0814 C-0.0003,9.36948148 0.304047037,8.69078425 0.835894559,8.21525051 L9.33589456,0.634250515 Z M10.0015222,1.38053452 L1.50196923,8.96113532 C1.18251257,9.24676716 0.9997,9.6544412 0.9997,10.0814 L0.9997,20.5404 C0.9997,21.3688737 1.6714583,22.0404 2.4997,22.0404 L19.4997,22.0404 C20.3285576,22.0404 20.9997,21.3692576 20.9997,20.5404 L20.9997,10.0814 C20.9997,9.65377189 20.8173873,9.24631996 20.4988946,8.96154949 L11.9988778,1.38053452 C11.4295201,0.872688494 10.5708799,0.872688494 10.0015222,1.38053452 Z" id="Stroke-3" fill="#949494" fill-rule="nonzero"></path>
                <path d="M7.8674,22.0406 L7.8674,15.2056 C7.8674,14.6526 8.3154,14.2056 8.8674,14.2056 L13.1324,14.2056 C13.6844,14.2056 14.1324,14.6526 14.1324,15.2056 L14.1324,22.0406" id="Fill-5" fill="#FFFFFF"></path>
                <path d="M8.3674,22.0406 L8.3674,15.2056 C8.3674,14.929165 8.59111954,14.7056 8.8674,14.7056 L13.1324,14.7056 C13.4086805,14.7056 13.6324,14.929165 13.6324,15.2056 L13.6324,22.0406 L14.6324,22.0406 L14.6324,15.2056 C14.6324,14.3767256 13.9608106,13.7056 13.1324,13.7056 L8.8674,13.7056 C8.03898938,13.7056 7.3674,14.3767256 7.3674,15.2056 L7.3674,22.0406 L8.3674,22.0406 Z" id="Stroke-7" fill="#949494" fill-rule="nonzero"></path>
            </g>
        </g>
    </g>
</svg>