<?xml version="1.0" encoding="UTF-8"?>
<svg width="22px" height="22px" viewBox="0 0 22 22" version="1.1" xmlns="http://www.w3.org/2000/svg" xmlns:xlink="http://www.w3.org/1999/xlink">
    <!-- Generator: Sketch 46.1 (44463) - http://www.bohemiancoding.com/sketch -->
    <title>icon/percentile</title>
    <desc>Created with Sketch.</desc>
    <defs>
        <polygon id="path-1" points="0.0005 14.6755 22 14.6755 22 0.0005 0.0005 0.0005"></polygon>
    </defs>
    <g id="Symbols" stroke="none" stroke-width="1" fill="none" fill-rule="evenodd">
        <g id="icon/percentile">
            <g id="Page-1" transform="translate(0.000000, 6.000000)">
                <path d="M15.6472,9.6583 C15.3712,9.6583 15.1472,9.8823 15.1472,10.1583 L15.1472,11.2213 C15.1472,11.4983 15.3712,11.7213 15.6472,11.7213 C15.9232,11.7213 16.1472,11.4983 16.1472,11.2213 L16.1472,10.1583 C16.1472,9.8823 15.9232,9.6583 15.6472,9.6583" id="Fill-1" fill="#000000"></path>
                <path d="M15.6472,6.4679 C15.3712,6.4679 15.1472,6.6919 15.1472,6.9679 L15.1472,8.0309 C15.1472,8.3079 15.3712,8.5309 15.6472,8.5309 C15.9232,8.5309 16.1472,8.3079 16.1472,8.0309 L16.1472,6.9679 C16.1472,6.6919 15.9232,6.4679 15.6472,6.4679" id="Fill-3" fill="#000000"></path>
                <mask id="mask-2" fill="white">
                    <use xlink:href="#path-1"></use>
                </mask>
                <g id="Clip-6"></g>
                <path d="M21.0005,13.6759 L16.1475,13.6759 L16.1475,13.3479 C16.1475,13.0719 15.9235,12.8479 15.6475,12.8479 C15.3705,12.8479 15.1475,13.0719 15.1475,13.3479 L15.1475,13.6759 L11.0005,13.6759 L11.0005,1.0029 C12.6825,1.0339 14.2535,1.9219 15.1175,3.3439 C15.2265,3.5229 15.3095,3.7229 15.4015,3.9149 C15.2525,4.0009 15.1475,4.1559 15.1475,4.3409 L15.1475,4.8409 C15.1475,5.1169 15.3705,5.3409 15.6475,5.3409 C15.7635,5.3409 15.8655,5.2949 15.9505,5.2289 C15.9775,5.3019 16.0055,5.3699 16.0325,5.4449 C16.3325,6.2719 16.6435,7.1269 17.1375,7.9359 C17.9955,9.3409 19.3235,10.4789 21.0005,11.2529 L21.0005,13.6759 Z M6.3495,8.0309 C6.3495,8.3079 6.1255,8.5309 5.8495,8.5309 C5.5735,8.5309 5.3495,8.3079 5.3495,8.0309 L5.3495,6.9679 C5.3495,6.6919 5.5735,6.4679 5.8495,6.4679 C6.1255,6.4679 6.3495,6.6919 6.3495,6.9679 L6.3495,8.0309 Z M6.3495,11.2219 C6.3495,11.4979 6.1255,11.7219 5.8495,11.7219 C5.5735,11.7219 5.3495,11.4979 5.3495,11.2219 L5.3495,10.1579 C5.3495,9.8819 5.5735,9.6579 5.8495,9.6579 C6.1255,9.6579 6.3495,9.8819 6.3495,10.1579 L6.3495,11.2219 Z M6.3495,13.8479 C6.3495,14.1239 6.1255,14.3479 5.8495,14.3479 C5.5735,14.3479 5.3495,14.1239 5.3495,13.8479 L5.3495,13.3479 C5.3495,13.0719 5.5735,12.8479 5.8495,12.8479 C6.1255,12.8479 6.3495,13.0719 6.3495,13.3479 L6.3495,13.8479 Z M17.9905,7.4149 C17.1125,5.9769 16.8405,4.2539 15.9715,2.8239 C14.8625,0.9989 12.9295,0.0299 11.0005,0.0009 C10.9995,0.0009 10.9985,0.0009 10.9965,0.0009 C10.2875,-0.0101 9.5795,0.1059 8.9125,0.3549 C8.9005,0.3599 8.8885,0.3669 8.8765,0.3709 C8.6675,0.4509 8.4605,0.5409 8.2605,0.6479 C8.2265,0.6659 8.1945,0.6909 8.1595,0.7099 C7.9845,0.8079 7.8115,0.9109 7.6465,1.0299 C7.5875,1.0719 7.5335,1.1249 7.4765,1.1699 C7.3405,1.2759 7.2035,1.3809 7.0765,1.5019 C6.9835,1.5909 6.8995,1.6949 6.8115,1.7919 C6.7285,1.8839 6.6405,1.9669 6.5615,2.0659 C6.4005,2.2699 6.2495,2.4899 6.1115,2.7249 C5.8735,3.1299 5.6775,3.5539 5.4985,3.9859 C5.5885,3.8969 5.7125,3.8409 5.8495,3.8409 C6.1255,3.8409 6.3495,4.0649 6.3495,4.3409 L6.3495,4.8409 C6.3495,5.1169 6.1255,5.3409 5.8495,5.3409 C5.5735,5.3409 5.3495,5.1169 5.3495,4.8409 L5.3495,4.3639 C4.9415,5.3999 4.5915,6.4609 4.0095,7.4149 C3.0945,8.9129 1.6205,9.9629 0.0005,10.5919 L0.0005,14.6759 L22.0005,14.6759 L22.0005,10.5919 C20.3795,9.9629 18.9055,8.9129 17.9905,7.4149 L17.9905,7.4149 Z" id="Fill-5" fill="#000000" mask="url(#mask-2)"></path>
            </g>
        </g>
    </g>
</svg>